{ 
    
    "alien": [
        {
            "shape": [ 231,231, 220,210, 284,119, 296,153, 296,184, 290,208, 273,236, 249,246 ]
        },
        {
            "shape": [ 220,210, 214,192, 212,154, 248,101, 259,100, 284,119 ]
        },
        {
            "shape": [ 248,101, 212,154, 220,125, 230,111 ]
        },
        {
            "shape": [ 546,127, 554,157, 554,193, 521,240, 500,211, 510,117, 518,111, 536,114 ]
        },
        {
            "shape": [ 521,240, 554,193, 547,221, 538,235 ]
        },
        {
            "shape": [ 510,117, 500,211, 495,158 ]
        },
        {
            "shape": [ 500,211, 521,240, 511,234 ]
        },
        {
            "shape": [ 225,306, 199,315, 173,315, 133,287, 199,243, 219,249, 233,260, 240,286 ]
        },
        {
            "shape": [ 153,249, 199,243, 133,287, 133,269 ]
        },
        {
            "shape": [ 133,287, 173,315, 159,312, 138,298 ]
        },
        {
            "shape": [ 543,260, 587,255, 618,267, 623,272, 558,313, 527,301, 521,293, 521,275 ]
        },
        {
            "shape": [ 619,301, 588,313, 558,313, 623,272, 626,290 ]
        },
        {
            "shape": [ 604,386, 597,408, 580,433, 537,467, 537,382, 554,370, 589,361, 602,368 ]
        },
        {
            "shape": [ 495,466, 493,448, 505,417, 537,382, 537,467, 518,472, 500,471 ]
        },
        {
            "shape": [ 579,361, 589,361, 554,370 ]
        },
        {
            "shape": [ 204,361, 238,375, 268,402, 291,446, 222,450, 192,417, 181,391, 181,368 ]
        },
        {
            "shape": [ 266,472, 247,466, 291,446, 291,457, 284,469 ]
        },
        {
            "shape": [ 291,446, 247,466, 222,450 ]
        },
        {
            "shape": [ 379,408, 368,396, 363,379, 361,339, 372,308, 412,371, 409,387, 398,406 ]
        },
        {
            "shape": [ 405,314, 412,339, 412,371, 372,308, 377,303, 391,301 ]
        }
    ]
}
